{
	"$schema": "https://raw.githubusercontent.com/martinring/tmlanguage/master/tmlanguage.json",
	"name": "IDP-Z3",
	"patterns": [{"include": "#comments"}, {"include": "#vocabulary"}, {"include": "#theory"}, {"include": "#structure"}],
	"repository": {
		"vocabulary": {
			"name": "meta.vocabulary",
			"begin": "\\b(vocabulary)\\b\\s+([A-Za-z][A-Za-z0-9]*)\\b\\s*{",
			"captures": {
				"1": {"name": "keyword"},
				"2": {"name": "entity.name.class"}
			},
    		"end": "\\}",
			"patterns": [{"include": "#comments"}, {"include": "#typeDeclaration"}, {"include": "#symbolDeclaration"}]
		},
		"theory": {
			"name": "meta.theory",
			"begin": "\\b(theory)\\s+([A-Z][A-Za-z0-9]*)\\s*:\\s*([A-Z][A-Za-z0-9]*)\\b\\s*{",
			"captures": {
				"1": {"name": "keyword"},
				"2": {"name": "entity.name.class"},
				"3": {"name": "entity.name.class"}
			},
    		"end": "\\}",
			"patterns": [{"include": "#comments"}, {"include": "#formulae"}]
		},
		"structure": {
			"name": "meta.structure",
			"begin": "\\b(structure)\\s+([A-Z][A-Za-z0-9]*)\\s*:\\s*([A-Z][A-Za-z0-9]*)\\b\\s*{",
			"captures": {
				"1": {"name": "keyword"},
				"2": {"name": "entity.name.class"},
				"3": {"name": "entity.name.class"}
			},
    		"end": "\\}",
			"patterns": [{"include": "#comments"}]
		},
		"comments": {
			"name": "comment.double-slash",
			"begin": "\\s*(\\/\\/)",
			"end": "$"
        },
		"typeDeclaration": {
			"begin": "\\b(type)\\b\\s+([A-Za-z0-9]*)\\b\\s*:=(?:\\s+(constructed)\\s+(from))?\\s*{",
			"captures": {
				"1": {"name": "keyword"},
				"2": {"name": "entity.name.type"},
				"3": {"name": "keyword"},
				"4": {"name": "keyword"}
			},
    		"end": "\\}",
			"patterns": [{"include": "#constantNames"}, {"include": "#numbers"}, {"include": "#comma"}]
		},
		"symbolDeclaration": {
			"begin": "\\b([a-zA-Z_][a-zA-Z0-9_]*)\\b\\s*:\\s*\\(?",
			"beginCaptures": {
				"1": {"name": "entity.name.function"}
			},
			"end": "\\)?\\s*->\\s*\\b([a-zA-Z_][a-zA-Z0-9_]*)\\b",
			"endCaptures": {
				"1": {"name": "entity.name.type"}
			},
			"patterns": [{"include": "#typeNames"},{"include": "#typePunctation"}]
		},
		"formulae": {
			"begin": "^\\s*(?!\\/\\/)",
  			"end": "$",
			"patterns": [{"include": "#quantifier"}, {"include": "#kOperaotr"}, {"include": "#connectives"}, {"include": "#symbolApplication"}, {"include": "#constantNames"}, {"include": "#comments"}]
		},
		"comma": {
			"match": ",",
			"name": "punctuation.separator"
		},
		"typePunctation": {
			"match": ",|\\*",
			"name": "punctuation.separator"
		},
		"punctation": {
			"match": ":=|:|,|.",
			"name": "punctuation.separator"
		},
		"connectives": {
			"match": "<=>|->|<-|:=|>=|=<|=>|<=|>|<",
			"name": "keyword.operator"
		},
		"constantNames": {
			"name": "entity.other.attribute-name",
			"match": "\\b(?!\\d)\\w+\\b"
		},
		"numbers": {
			"name": "entity.other.attribute-name",
			"match": "\\b\\d+\\b"
		},
		"typeNames": {
			"name": "entity.name.type",
			"match": "\\b(?!\\d)\\w+\\b"
		},
		"symbolApplication" : {
			"begin": "\\b([a-zA-Z_][a-zA-Z0-9_]*)\\b\\(",
			"beginCaptures": {
				"1": {"name": "entity.name.function"}
			},
			"end": "\\)",
			"patterns": [{"include": "#symbolApplication"}, {"include": "#comma"}, {"include": "#constantNames"}]
		},
		"quantifier" : {
			"begin": "(\\?|\\!)",
			"end": "\\:",
			"captures": {
				"0": {"name": "keyword.operator"}
			},
			"patterns": [{"include": "#quantfiedVariable"}]
		},
		"quantfiedVariable" : {
			"match": "\\b\\s*(.*?)\\s+(in)\\s+([A-Za-z_][A-Za-z0-9_]*)\\b",
			"captures": {
				"1": {"patterns": [{"include": "#constantNames"}, {"include": "#comma"}]},
				"2": {"name": "keyword"},
				"3": {"name": "entity.name.type"}
			}
		},
		"kOperaotr" : {
			"begin": "\\bK\\b\\[\\b([A-Za-z0-9]+)\\b\\]\\[",
			"end": "\\]",
			"captures": {
				"0": {"name": "keyword"},
				"1": {"name": "entity.name.class"}
			},
			"patterns": [{"include": "#connectives"}, {"include": "#symbolApplication"}, {"include": "#constantNames"}]
		}
	},
	"scopeName": "source.idpz3"
}
